\relax 
\catcode `:\active 
\catcode `;\active 
\catcode `!\active 
\catcode `?\active 
\babel@aux{french}{}
\@writefile{toc}{\contentsline {chapter}{\numberline {1}Introduction}{2}}
\@writefile{lof}{\addvspace {10\p@ }}
\@writefile{lot}{\addvspace {10\p@ }}
\@writefile{toc}{\contentsline {section}{\numberline {1.1}Contexte}{2}}
\@writefile{toc}{\contentsline {paragraph}{}{2}}
\@writefile{toc}{\contentsline {paragraph}{}{2}}
\@writefile{toc}{\contentsline {paragraph}{}{2}}
\@writefile{toc}{\contentsline {section}{\numberline {1.2}Objectifs}{2}}
\@writefile{toc}{\contentsline {paragraph}{}{2}}
\@writefile{toc}{\contentsline {paragraph}{}{3}}
\@writefile{toc}{\contentsline {paragraph}{}{3}}
\@writefile{toc}{\contentsline {section}{\numberline {1.3}Pr\IeC {\'e}sentation de l'\IeC {\'e}quipe}{3}}
\@writefile{toc}{\contentsline {subsection}{\numberline {1.3.1}Ma\IeC {\^\i }trise d'\IeC {\oe }uvre}{3}}
\@writefile{toc}{\contentsline {paragraph}{}{3}}
\@writefile{toc}{\contentsline {paragraph}{}{3}}
\@writefile{toc}{\contentsline {subsection}{\numberline {1.3.2}Ma\IeC {\^\i }trise d'ouvrage}{3}}
\@writefile{toc}{\contentsline {paragraph}{}{3}}
\@writefile{toc}{\contentsline {chapter}{\numberline {2}Analyse du projet}{4}}
\@writefile{lof}{\addvspace {10\p@ }}
\@writefile{lot}{\addvspace {10\p@ }}
\@writefile{toc}{\contentsline {paragraph}{}{4}}
\@writefile{toc}{\contentsline {section}{\numberline {2.1}\IeC {\'E}tat de l'art}{4}}
\@writefile{toc}{\contentsline {paragraph}{}{4}}
\@writefile{toc}{\contentsline {section}{\numberline {2.2}\IeC {\'E}tat actuel de l'application}{4}}
\@writefile{toc}{\contentsline {paragraph}{}{4}}
\@writefile{toc}{\contentsline {paragraph}{}{4}}
\@writefile{toc}{\contentsline {chapter}{\numberline {3}Description des besoins}{5}}
\@writefile{lof}{\addvspace {10\p@ }}
\@writefile{lot}{\addvspace {10\p@ }}
\@writefile{toc}{\contentsline {section}{\numberline {3.1}Architecture du syst\IeC {\`e}me \IeC {\`a} d\IeC {\'e}velopper}{5}}
\@writefile{toc}{\contentsline {paragraph}{}{5}}
\@writefile{toc}{\contentsline {paragraph}{}{5}}
\@writefile{lof}{\contentsline {figure}{\numberline {3.1}{\ignorespaces Architecture du syst\IeC {\`e}me global}}{5}}
\@writefile{toc}{\contentsline {section}{\numberline {3.2}Acteurs}{6}}
\@writefile{toc}{\contentsline {section}{\numberline {3.3}Analyse des besoins fonctionnels}{6}}
\@writefile{toc}{\contentsline {section}{\numberline {3.4}Analyse des besoins non fonctionnels}{6}}
\@writefile{toc}{\contentsline {subsection}{\numberline {3.4.1}Crit\IeC {\`e}res d'acceptabilit\IeC {\'e}}{6}}
\@writefile{toc}{\contentsline {paragraph}{}{6}}
\@writefile{toc}{\contentsline {paragraph}{}{6}}
\@writefile{toc}{\contentsline {paragraph}{}{6}}
\@writefile{toc}{\contentsline {subsection}{\numberline {3.4.2}Contraintes}{6}}
\@writefile{toc}{\contentsline {subsubsection}{Contraintes de d\IeC {\'e}lai}{6}}
\@writefile{toc}{\contentsline {paragraph}{}{6}}
\@writefile{toc}{\contentsline {paragraph}{}{7}}
\@writefile{toc}{\contentsline {subsubsection}{Contraintes mat\IeC {\'e}rielles}{7}}
\@writefile{toc}{\contentsline {paragraph}{}{7}}
\@writefile{toc}{\contentsline {paragraph}{}{7}}
\@writefile{toc}{\contentsline {paragraph}{}{7}}
\@writefile{toc}{\contentsline {section}{\numberline {3.5}Sp\IeC {\'e}cifications des caract\IeC {\'e}ristiques fonctionnelles}{7}}
\@writefile{toc}{\contentsline {subsection}{\numberline {3.5.1}Diagramme de cas d'utilisation}{7}}
\@writefile{lof}{\contentsline {figure}{\numberline {3.2}{\ignorespaces Diagramme de cas d'utilisation du syst\IeC {\`e}me global}}{8}}
\@writefile{toc}{\contentsline {paragraph}{}{8}}
\@writefile{toc}{\contentsline {chapter}{\numberline {4}Livraison du produit}{9}}
\@writefile{lof}{\addvspace {10\p@ }}
\@writefile{lot}{\addvspace {10\p@ }}
\@writefile{toc}{\contentsline {paragraph}{}{9}}
\@writefile{toc}{\contentsline {paragraph}{}{9}}
\bibstyle{}
\@writefile{toc}{\contentsline {chapter}{\numberline {5}Conclusion}{10}}
\@writefile{lof}{\addvspace {10\p@ }}
\@writefile{lot}{\addvspace {10\p@ }}
