\boolfalse {citerequest}\boolfalse {citetracker}\boolfalse {pagetracker}\boolfalse {backtracker}\relax 
\babel@toc {french}{}
\defcounter {refsection}{0}\relax 
\contentsline {section}{\numberline {1}Introduction}{2}
\defcounter {refsection}{0}\relax 
\contentsline {section}{\numberline {2}Carte heuristique}{2}
\defcounter {refsection}{0}\relax 
\contentsline {section}{\numberline {3}Descriptif de la recherche documentaire}{2}
\defcounter {refsection}{0}\relax 
\contentsline {section}{\numberline {4}Bibliographie produite dans le cadre du projet}{3}
\defcounter {refsection}{0}\relax 
\contentsline {section}{\numberline {5}\IeC {\'E}valuation des sources}{3}
\defcounter {refsection}{0}\relax 
\contentsline {section}{\numberline {6}Conclusion}{3}
